{
  "name": "pf2e",
  "title": "Pathfinder 2nd Edition",
  "description": "A community contributed game system for Pathfinder Second Edition.",
  "version": "0.554.0",
  "schema": 0.544,
  "minimumCoreVersion": "0.4.7",
  "compatibleCoreVersion": "0.5.5",
  "author": "hooking, Trey",
  "esmodules": ["pf2e.js"],
  "scripts": [
    "./scripts/init.js",
    "./scripts/item/sheet.js",
    "./scripts/actor/trait-selector.js",
    "./scripts/dice.js",
    "./scripts/packs/spell-browser.js",
    "./scripts/chat/chatdamagebuttonsPF2e.js",
    "./scripts/actor/sheet/itemBehaviour.js"
  ],
  "styles": ["./pf2e.css"],
  "packs": [
    {
      "name": "spells-srd",
      "label": "Spells (SRD)",
      "system": "pf2e",
      "module": "pf2e",
      "path": "./packs/spells.db",
      "entity": "Item"
    },
    {
      "name": "feats-srd",
      "label": "Feats (SRD)",
      "system": "pf2e",
      "module": "pf2e",
      "path": "./packs/feats.db",
      "entity": "Item"
    },
    {
      "name": "equipment-srd",
      "label": "Equipment (SRD)",
      "system": "pf2e",
      "module": "pf2e",
      "path": "./packs/equipment.db",
      "entity": "Item"
    },
    {
      "name": "conditionspf2e",
      "label": "Conditions (PF2e)",
      "system": "pf2e",
      "module": "pf2e",
      "path": "packs/conditionspf2e.db",
      "entity": "JournalEntry"
    },
    {
      "name": "actionspf2e",
      "label": "Actions (SRD)",
      "system": "pf2e",
      "module": "pf2e",
      "path": "packs/actions.db",
      "entity": "Item"
    },
    {
      "name": "bestiary-v05520",
      "label": "Bestiary v0.552.0",
      "system": "pf2e",
      "module": "pf2e",
      "path": "packs/bestiary-v05520.db",
      "entity": "Actor"
    },
    {
      "name": "ancestryfeatures",
      "label": "Ancestry Features (SRD)",
      "path": "packs/ancestryfeatures.db",
      "entity": "Item",
      "module": "pf2e",
      "system": "pf2e"
    },
    {
      "name": "classfeatures",
      "label": "Class Features (SRD)",
      "path": "packs/classfeatures.db",
      "entity": "Item",
      "module": "pf2e",
      "system": "pf2e"
    },
    {
      "name": "rollable-tables",
      "label": "Rollable Tables",
      "path": "packs/rollable-tables.db",
      "entity": "RollTable",
      "system": "pf2e",
      "module": "pf2e"
    },
    {
      "name": "backgrounds",
      "label": "Backgrounds (SRD)",
      "system": "pf2e",
      "module": "pf2e",
      "path": "packs/backgrounds.db",
      "entity": "JournalEntry"
    },
    {
      "name": "classes",
      "label": "Classes (SRD)",
      "system": "pf2e",
      "module": "pf2e",
      "path": "packs/classes.db",
      "entity": "JournalEntry"
    },
    {
      "name": "critical-fumble-deck",
      "label": "Critical Fumble Deck",
      "system": "pf2e",
      "module": "pf2e",
      "path": "packs/critical-fumble-deck.db",
      "entity": "JournalEntry"
    },
    {
      "name": "critical-hit-deck",
      "label": "Critical Hit Deck",
      "system": "pf2e",
      "module": "pf2e",
      "path": "packs/critical-hit-deck.db",
      "entity": "JournalEntry"
    }
  ],
  "languages": [
    {
      "lang": "en",
      "name": "English",
      "path": "lang/en.json"
    }
  ],
  "socket": true,
  "templateVersion": 2,
  "initiative": "1d20 + @attributes.perception.value + (@abilities.wis.value / 100)",
  "gridDistance": 5,
  "gridUnits": "ft",
  "url": "https://gitlab.com/hooking/foundry-vtt---pathfinder-2e",
  "manifest": "https://gitlab.com/hooking/foundry-vtt---pathfinder-2e/raw/master/system.json",
  "download": "https://gitlab.com/hooking/foundry-vtt---pathfinder-2e/uploads/c782ed37ab4ce5e891b9aca6c0cf21af/pf2e-v0.554.0.zip"
}